PCBNEW-LibModule-V1  Срд 23 Июн 2010 02:16:05
$INDEX
MINIUSB_5PIN
$EndINDEX
$MODULE MINIUSB_5PIN
Po 0 0 0 15 4C2119DA 00000000 ~~
Li MINIUSB_5PIN
Sc 00000000
AR 
Op 0 0 0
T0 0 2500 600 600 0 120 N V 21 N"MINIUSB_5PIN"
T1 0 -3000 600 600 0 120 N I 21 N"VAL**"
DS 1516 -1969 -1516 -1969 150 21
DS 1516 1575 -1516 1575 150 21
DS 1516 1575 1516 -1969 150 21
DS -1516 1575 -1516 -1969 150 21
DC -867 -492 -690 -492 150 21
DC 865 -492 1042 -472 150 21
$PAD
Sh "1" R 197 906 0 0 0
Dr 0 0 0
At SMD N 00888000
Ne 0 ""
Po -630 -1516
$EndPAD
$PAD
Sh "2" R 197 906 0 0 0
Dr 0 0 0
At SMD N 00888000
Ne 0 ""
Po -315 -1516
$EndPAD
$PAD
Sh "3" R 197 906 0 0 0
Dr 0 0 0
At SMD N 00888000
Ne 0 ""
Po 0 -1516
$EndPAD
$PAD
Sh "4" R 197 906 0 0 0
Dr 0 0 0
At SMD N 00888000
Ne 0 ""
Po 315 -1516
$EndPAD
$PAD
Sh "5" R 197 906 0 0 0
Dr 0 0 0
At SMD N 00888000
Ne 0 ""
Po 630 -1516
$EndPAD
$PAD
Sh "5" R 787 984 0 0 0
Dr 0 0 0
At SMD N 00888000
Ne 0 ""
Po -1752 -1476
$EndPAD
$PAD
Sh "5" R 787 984 0 0 0
Dr 0 0 0
At SMD N 00888000
Ne 0 ""
Po 1752 -1476
$EndPAD
$PAD
Sh "5" R 787 984 0 0 0
Dr 0 0 0
At SMD N 00888000
Ne 0 ""
Po -1713 689
$EndPAD
$PAD
Sh "5" R 787 984 0 0 0
Dr 0 0 0
At SMD N 00888000
Ne 0 ""
Po 1752 689
$EndPAD
$EndMODULE  MINIUSB_5PIN
$EndLIBRARY
