EESchema Schematic File Version 2  date Пт. 02 сент. 2011 23:03:34
LIBS:power
LIBS:device
LIBS:transistors
LIBS:conn
LIBS:linear
LIBS:regul
LIBS:74xx
LIBS:cmos4000
LIBS:adc-dac
LIBS:memory
LIBS:xilinx
LIBS:special
LIBS:microcontrollers
LIBS:dsp
LIBS:microchip
LIBS:analog_switches
LIBS:motorola
LIBS:texas
LIBS:intel
LIBS:audio
LIBS:interface
LIBS:digital-audio
LIBS:philips
LIBS:display
LIBS:cypress
LIBS:siliconi
LIBS:opto
LIBS:atmel
LIBS:contrib
LIBS:valves
LIBS:miniusb_5pin
LIBS:bzx84c3v6
LIBS:opendous
LIBS:project-cache
EELAYER 24  0
EELAYER END
$Descr A4 11700 8267
Sheet 1 1
Title ""
Date "2 sep 2011"
Rev ""
Comp ""
Comment1 ""
Comment2 ""
Comment3 ""
Comment4 ""
$EndDescr
Wire Wire Line
	8850 3550 8750 3550
Wire Wire Line
	8850 3350 8750 3350
Wire Wire Line
	9250 3550 9350 3550
Wire Wire Line
	9350 3550 9350 3850
Wire Wire Line
	9350 3850 9550 3850
Wire Wire Line
	9250 3450 9450 3450
Wire Wire Line
	9450 3450 9450 3550
Wire Wire Line
	9450 3550 9550 3550
Connection ~ 10050 3250
Wire Wire Line
	10050 3950 10050 2950
Wire Wire Line
	10050 2950 9950 2950
Connection ~ 10050 3550
Wire Wire Line
	10050 3550 9950 3550
Wire Wire Line
	9300 1950 9300 2350
Wire Wire Line
	9300 2350 9800 2350
Wire Wire Line
	9500 1950 9500 2150
Wire Wire Line
	9500 2150 9800 2150
Wire Wire Line
	7900 1950 7900 2350
Wire Wire Line
	7900 2350 8400 2350
Wire Wire Line
	8100 1950 8100 2150
Wire Wire Line
	8100 2150 8400 2150
Wire Wire Line
	9800 4850 9700 4850
Wire Wire Line
	9700 4850 9700 5150
Wire Wire Line
	9700 5150 9600 5150
Wire Wire Line
	9800 4650 9700 4650
Wire Wire Line
	9700 4650 9700 4350
Wire Wire Line
	9700 4350 9600 4350
Connection ~ 8900 4750
Wire Wire Line
	8900 4750 9000 4750
Wire Wire Line
	8900 5250 8900 4350
Wire Wire Line
	8900 4350 9000 4350
Connection ~ 6150 1750
Wire Wire Line
	5950 1750 6150 1750
Wire Bus Line
	4150 6600 4150 6300
Connection ~ 3050 6500
Wire Wire Line
	3050 6500 3050 6300
Wire Wire Line
	3050 6300 2950 6300
Connection ~ 2850 6700
Wire Wire Line
	2250 6700 3300 6700
Connection ~ 6700 5250
Wire Wire Line
	6900 5450 6700 5450
Connection ~ 6700 4750
Wire Wire Line
	6700 5050 6900 5050
Connection ~ 6700 4350
Wire Wire Line
	6700 4550 6900 4550
Connection ~ 6700 3850
Wire Wire Line
	6700 4150 6900 4150
Connection ~ 6700 3450
Wire Wire Line
	6700 3650 6900 3650
Connection ~ 6700 2950
Wire Wire Line
	6700 3250 6900 3250
Connection ~ 6700 2750
Wire Wire Line
	6700 2950 6900 2950
Connection ~ 6800 2650
Connection ~ 6800 2450
Wire Wire Line
	6800 5750 6800 2250
Wire Wire Line
	5050 6800 5050 7000
Wire Wire Line
	5050 7000 4850 7000
Connection ~ 6800 3750
Wire Wire Line
	6800 3750 6900 3750
Connection ~ 6800 3350
Wire Wire Line
	6800 3350 6900 3350
Connection ~ 6800 3150
Wire Wire Line
	6800 3150 6900 3150
Connection ~ 6800 2850
Wire Wire Line
	6800 2850 6900 2850
Wire Wire Line
	6800 2650 6900 2650
Wire Wire Line
	6900 2450 6800 2450
Wire Wire Line
	6800 2250 6900 2250
Wire Wire Line
	2600 2650 2600 2450
Wire Wire Line
	2600 2650 2700 2650
Wire Wire Line
	2600 1500 2600 1600
Wire Bus Line
	4150 6300 6400 6300
Wire Wire Line
	3800 6500 4050 6500
Connection ~ 2950 1000
Wire Wire Line
	2950 1100 2950 1000
Wire Wire Line
	3350 1600 3350 1500
Wire Bus Line
	6400 6300 6400 2100
Wire Wire Line
	2550 7200 2550 7300
Wire Wire Line
	2350 7100 2350 7300
Wire Wire Line
	2850 6800 2850 6700
Connection ~ 2850 7300
Wire Wire Line
	2350 7100 2250 7100
Wire Wire Line
	5900 1350 6150 1350
Wire Wire Line
	5900 1150 6150 1150
Wire Wire Line
	4900 5650 4700 5650
Wire Wire Line
	4700 5450 4900 5450
Wire Wire Line
	4900 5350 4700 5350
Wire Wire Line
	4900 5150 4700 5150
Wire Wire Line
	4900 4950 4700 4950
Wire Wire Line
	4900 4650 4700 4650
Wire Wire Line
	4900 4450 4700 4450
Wire Wire Line
	4900 4250 4700 4250
Wire Wire Line
	4900 4050 4700 4050
Wire Wire Line
	4700 3850 4900 3850
Wire Wire Line
	4700 3650 4900 3650
Wire Wire Line
	4700 3450 4900 3450
Wire Wire Line
	4700 3250 4900 3250
Wire Wire Line
	2600 2250 2600 1750
Wire Wire Line
	3650 900  3650 1950
Wire Wire Line
	5600 1250 5100 1250
Wire Wire Line
	5600 1350 5350 1350
Wire Wire Line
	4700 2850 4900 2850
Wire Wire Line
	4700 2650 4900 2650
Wire Wire Line
	4700 2450 4900 2450
Wire Wire Line
	4700 2950 4900 2950
Wire Wire Line
	2600 2450 2100 2450
Wire Wire Line
	2600 1100 2600 1000
Wire Wire Line
	2600 2250 2700 2250
Wire Wire Line
	4350 1000 4550 1000
Wire Wire Line
	4450 1200 3750 1200
Wire Wire Line
	4450 1200 4450 1000
Wire Wire Line
	4550 1500 4550 1600
Wire Wire Line
	2600 3550 2600 3450
Wire Wire Line
	2600 3450 2700 3450
Connection ~ 3700 6050
Wire Wire Line
	3650 6050 3650 5950
Wire Wire Line
	3850 5950 3850 6050
Wire Wire Line
	3550 1950 3550 1850
Wire Wire Line
	1600 3350 1600 2450
Wire Wire Line
	1600 2450 1700 2450
Wire Wire Line
	3550 1850 3850 1850
Wire Wire Line
	3850 1850 3850 1950
Connection ~ 3650 1850
Connection ~ 3650 1000
Wire Wire Line
	2200 2550 2200 2450
Connection ~ 2200 2450
Wire Wire Line
	2200 3150 2200 3250
Connection ~ 2200 3250
Wire Wire Line
	1700 3250 1600 3250
Connection ~ 1600 3250
Wire Wire Line
	3750 5950 3750 6050
Connection ~ 3750 6050
Wire Wire Line
	3550 5950 3550 6050
Wire Wire Line
	3550 6050 3850 6050
Connection ~ 3650 6050
Wire Wire Line
	2600 3950 2600 4050
Wire Wire Line
	4550 1000 4550 1100
Connection ~ 4450 1000
Wire Wire Line
	2100 3250 2600 3250
Wire Wire Line
	4900 2250 4700 2250
Wire Wire Line
	4700 2350 4900 2350
Wire Wire Line
	4700 2550 4900 2550
Wire Wire Line
	4700 2750 4900 2750
Wire Bus Line
	5000 1250 5000 1900
Wire Wire Line
	5600 1150 5100 1150
Wire Wire Line
	5350 1350 5350 1750
Wire Wire Line
	3750 1200 3750 1950
Wire Bus Line
	6300 2000 5100 2000
Wire Bus Line
	5000 5550 5000 2100
Wire Wire Line
	4700 3150 4900 3150
Wire Wire Line
	4700 3350 4900 3350
Wire Wire Line
	4700 3550 4900 3550
Wire Wire Line
	4700 3750 4900 3750
Wire Wire Line
	4700 4150 4900 4150
Wire Wire Line
	4700 4350 4900 4350
Wire Wire Line
	4700 4550 4900 4550
Wire Wire Line
	4700 4750 4900 4750
Wire Wire Line
	4700 5050 4900 5050
Wire Wire Line
	4700 5250 4900 5250
Wire Wire Line
	4700 5550 4900 5550
Wire Wire Line
	6150 1150 6150 1050
Wire Wire Line
	5900 1250 6250 1250
Wire Wire Line
	5100 1550 6250 1550
Wire Wire Line
	6250 1550 6250 1250
Connection ~ 2550 7300
Wire Wire Line
	2850 7400 2850 7200
Wire Wire Line
	2250 6500 3300 6500
Connection ~ 2550 6500
Wire Wire Line
	2550 6800 2550 6500
Wire Wire Line
	3350 1000 3350 1100
Connection ~ 3350 1000
Wire Wire Line
	2950 1600 2950 1500
Wire Wire Line
	3700 6050 3700 6150
Wire Wire Line
	3800 6700 4050 6700
Wire Wire Line
	2600 1000 3750 1000
Wire Wire Line
	2700 3050 2600 3050
Wire Wire Line
	2600 3050 2600 3250
Wire Wire Line
	6800 4950 6900 4950
Connection ~ 6800 4950
Wire Wire Line
	6800 5150 6900 5150
Connection ~ 6800 5150
Wire Wire Line
	6800 5350 6900 5350
Connection ~ 6800 5350
Wire Wire Line
	6800 5550 6900 5550
Connection ~ 6800 5550
Wire Wire Line
	6800 4650 6900 4650
Connection ~ 6800 4650
Wire Wire Line
	6800 4450 6900 4450
Connection ~ 6800 4450
Wire Wire Line
	6800 4250 6900 4250
Connection ~ 6800 4250
Wire Wire Line
	6800 4050 6900 4050
Connection ~ 6800 4050
Wire Wire Line
	5300 5650 5100 5650
Wire Wire Line
	5300 5450 5100 5450
Wire Wire Line
	5300 5250 5100 5250
Wire Wire Line
	5300 5050 5100 5050
Wire Wire Line
	5300 3850 5100 3850
Wire Wire Line
	5300 3650 5100 3650
Wire Wire Line
	5300 3450 5100 3450
Wire Wire Line
	5300 3250 5100 3250
Wire Wire Line
	5300 2850 5100 2850
Wire Wire Line
	5300 2650 5100 2650
Wire Wire Line
	5300 2450 5100 2450
Wire Wire Line
	5300 2250 5100 2250
Wire Wire Line
	5300 4650 5100 4650
Wire Wire Line
	5300 4450 5100 4450
Wire Wire Line
	5100 4250 5300 4250
Wire Wire Line
	5100 4050 5300 4050
Wire Wire Line
	5100 4150 5300 4150
Wire Wire Line
	5300 4350 5100 4350
Wire Wire Line
	5300 4550 5100 4550
Wire Wire Line
	5300 4750 5100 4750
Wire Wire Line
	5300 2350 5100 2350
Wire Wire Line
	5300 2550 5100 2550
Wire Wire Line
	5300 2750 5100 2750
Wire Wire Line
	5300 2950 5100 2950
Wire Wire Line
	5100 3150 5300 3150
Wire Wire Line
	5300 3350 5100 3350
Wire Wire Line
	5300 3550 5100 3550
Wire Wire Line
	5300 3750 5100 3750
Wire Wire Line
	5300 4950 5100 4950
Wire Wire Line
	5300 5150 5100 5150
Wire Wire Line
	5300 5350 5100 5350
Wire Wire Line
	5300 5550 5100 5550
Wire Wire Line
	4850 7200 5050 7200
Wire Wire Line
	5050 7200 5050 7500
Wire Wire Line
	6700 2350 6900 2350
Wire Wire Line
	6700 2550 6900 2550
Connection ~ 6700 2350
Wire Wire Line
	6700 2750 6900 2750
Connection ~ 6700 2550
Wire Wire Line
	6800 3550 6900 3550
Connection ~ 6800 3550
Wire Wire Line
	6700 3450 6900 3450
Connection ~ 6700 3250
Wire Wire Line
	6700 3850 6900 3850
Connection ~ 6700 3650
Wire Wire Line
	6700 4350 6900 4350
Connection ~ 6700 4150
Wire Wire Line
	6700 4750 6900 4750
Connection ~ 6700 4550
Wire Wire Line
	6700 5250 6900 5250
Connection ~ 6700 5050
Wire Wire Line
	6900 5650 6700 5650
Wire Wire Line
	6700 5650 6700 2250
Connection ~ 6700 5450
Wire Wire Line
	2350 6200 2350 6300
Wire Wire Line
	2250 6300 2450 6300
Connection ~ 2350 6300
Wire Wire Line
	2350 7300 2850 7300
Wire Wire Line
	6150 1350 6150 1850
Wire Wire Line
	2600 1750 5550 1750
Connection ~ 5350 1750
Wire Wire Line
	8900 5150 9000 5150
Connection ~ 8900 5150
Wire Wire Line
	9600 4750 9800 4750
Wire Wire Line
	8400 2050 8200 2050
Wire Wire Line
	8200 2050 8200 1950
Wire Wire Line
	8400 2250 8000 2250
Wire Wire Line
	8000 2250 8000 1950
Wire Wire Line
	9800 2050 9600 2050
Wire Wire Line
	9600 2050 9600 1950
Wire Wire Line
	9800 2250 9400 2250
Wire Wire Line
	9400 2250 9400 1950
Wire Wire Line
	9950 3250 10050 3250
Wire Wire Line
	10050 3850 9950 3850
Connection ~ 10050 3850
Wire Wire Line
	9550 3250 9450 3250
Wire Wire Line
	9450 3250 9450 3350
Wire Wire Line
	9450 3350 9250 3350
Wire Wire Line
	9550 2950 9350 2950
Wire Wire Line
	9350 2950 9350 3250
Wire Wire Line
	9350 3250 9250 3250
Wire Wire Line
	8850 3250 8750 3250
Wire Wire Line
	8850 3450 8750 3450
$Comp
L CONN_4 P13
U 1 1 4E610BAE
P 8400 3400
F 0 "P13" V 8350 3400 50  0000 C CNN
F 1 "CONN_4" V 8450 3400 50  0000 C CNN
	1    8400 3400
	-1   0    0    -1  
$EndComp
$Comp
L LED D3
U 1 1 4E610B7D
P 9750 2950
F 0 "D3" H 9750 3050 50  0000 C CNN
F 1 "LED" H 9750 2850 50  0000 C CNN
	1    9750 2950
	1    0    0    -1  
$EndComp
$Comp
L R_PACK4 RP1
U 1 1 4E610B6F
P 9050 3600
F 0 "RP1" H 9050 4050 40  0000 C CNN
F 1 "R_PACK4" H 9050 3550 40  0000 C CNN
	1    9050 3600
	1    0    0    -1  
$EndComp
$Comp
L GND #PWR18
U 1 1 4E610B07
P 10050 3950
F 0 "#PWR18" H 10050 3950 30  0001 C CNN
F 1 "GND" H 10050 3880 30  0001 C CNN
	1    10050 3950
	1    0    0    -1  
$EndComp
$Comp
L LED D6
U 1 1 4E610AED
P 9750 3850
F 0 "D6" H 9750 3950 50  0000 C CNN
F 1 "LED" H 9750 3750 50  0000 C CNN
	1    9750 3850
	1    0    0    -1  
$EndComp
$Comp
L LED D5
U 1 1 4E610AE9
P 9750 3550
F 0 "D5" H 9750 3650 50  0000 C CNN
F 1 "LED" H 9750 3450 50  0000 C CNN
	1    9750 3550
	1    0    0    -1  
$EndComp
$Comp
L LED D4
U 1 1 4E610AE1
P 9750 3250
F 0 "D4" H 9750 3350 50  0000 C CNN
F 1 "LED" H 9750 3150 50  0000 C CNN
	1    9750 3250
	1    0    0    -1  
$EndComp
$Comp
L CONN_3 K1
U 1 1 4E60F358
P 10150 4750
F 0 "K1" V 10100 4750 50  0000 C CNN
F 1 "CONN_3" V 10200 4750 40  0000 C CNN
	1    10150 4750
	1    0    0    -1  
$EndComp
$Comp
L CONN_4 P12
U 1 1 4E60F32E
P 10150 2200
F 0 "P12" V 10100 2200 50  0000 C CNN
F 1 "CONN_4" V 10200 2200 50  0000 C CNN
	1    10150 2200
	1    0    0    -1  
$EndComp
$Comp
L CONN_4 P11
U 1 1 4E60F320
P 8750 2200
F 0 "P11" V 8700 2200 50  0000 C CNN
F 1 "CONN_4" V 8800 2200 50  0000 C CNN
	1    8750 2200
	1    0    0    -1  
$EndComp
$Comp
L GND #PWR17
U 1 1 4E60EC37
P 8900 5250
F 0 "#PWR17" H 8900 5250 30  0001 C CNN
F 1 "GND" H 8900 5180 30  0001 C CNN
	1    8900 5250
	1    0    0    -1  
$EndComp
$Comp
L SW_PUSH SW3
U 1 1 4E60EC18
P 9300 5150
F 0 "SW3" H 9450 5260 50  0000 C CNN
F 1 "MINUS" H 9300 5070 50  0000 C CNN
	1    9300 5150
	1    0    0    -1  
$EndComp
$Comp
L SW_PUSH SW2
U 1 1 4E60EC10
P 9300 4750
F 0 "SW2" H 9450 4860 50  0000 C CNN
F 1 "MODE" H 9300 4670 50  0000 C CNN
	1    9300 4750
	1    0    0    -1  
$EndComp
$Comp
L SW_PUSH SW1
U 1 1 4E60EC01
P 9300 4350
F 0 "SW1" H 9450 4460 50  0000 C CNN
F 1 "PLUS" H 9300 4270 50  0000 C CNN
	1    9300 4350
	1    0    0    -1  
$EndComp
$Comp
L RJ12 J4
U 1 1 4E60EAE9
P 9400 1500
F 0 "J4" H 9600 2000 60  0000 C CNN
F 1 "CONTROL" H 9250 2000 60  0000 C CNN
	1    9400 1500
	1    0    0    -1  
$EndComp
$Comp
L RJ12 J3
U 1 1 4E60EAE4
P 8000 1500
F 0 "J3" H 8200 2000 60  0000 C CNN
F 1 "SENSOR" H 7850 2000 60  0000 C CNN
	1    8000 1500
	1    0    0    -1  
$EndComp
$Comp
L C C9
U 1 1 4D04C2DE
P 5750 1750
F 0 "C9" H 5800 1850 50  0000 L CNN
F 1 "100n" H 5800 1650 50  0000 L CNN
	1    5750 1750
	0    -1   1    0   
$EndComp
$Comp
L VCC #PWR15
U 1 1 4C80DA6A
P 6700 2250
F 0 "#PWR15" H 6700 2350 30  0001 C CNN
F 1 "VCC" H 6700 2350 30  0000 C CNN
	1    6700 2250
	1    0    0    -1  
$EndComp
$Comp
L CONN_8 P10
U 1 1 4C80DA5E
P 7250 5300
F 0 "P10" V 7200 5300 60  0000 C CNN
F 1 "POWER" V 7300 5300 60  0000 C CNN
	1    7250 5300
	1    0    0    -1  
$EndComp
$Comp
L CONN_8 P9
U 1 1 4C80DA5B
P 7250 4400
F 0 "P9" V 7200 4400 60  0000 C CNN
F 1 "POWER" V 7300 4400 60  0000 C CNN
	1    7250 4400
	1    0    0    -1  
$EndComp
$Comp
L CONN_8 P8
U 1 1 4C80DA57
P 7250 3500
F 0 "P8" V 7200 3500 60  0000 C CNN
F 1 "POWER" V 7300 3500 60  0000 C CNN
	1    7250 3500
	1    0    0    -1  
$EndComp
$Comp
L CONN_8 P7
U 1 1 4C80DA27
P 7250 2600
F 0 "P7" V 7200 2600 60  0000 C CNN
F 1 "POWER" V 7300 2600 60  0000 C CNN
	1    7250 2600
	1    0    0    -1  
$EndComp
$Comp
L VCC #PWR11
U 1 1 4C809CF0
P 5050 6800
F 0 "#PWR11" H 5050 6900 30  0001 C CNN
F 1 "VCC" H 5050 6900 30  0000 C CNN
	1    5050 6800
	1    0    0    -1  
$EndComp
$Comp
L GND #PWR12
U 1 1 4C809CE2
P 5050 7500
F 0 "#PWR12" H 5050 7500 30  0001 C CNN
F 1 "GND" H 5050 7430 30  0001 C CNN
	1    5050 7500
	1    0    0    -1  
$EndComp
$Comp
L CONN_2 P2
U 1 1 4C809C76
P 4500 7100
F 0 "P2" V 4450 7100 40  0000 C CNN
F 1 "POWER" V 4550 7100 40  0000 C CNN
	1    4500 7100
	-1   0    0    1   
$EndComp
$Comp
L CONN_8 P3
U 1 1 4C53D19B
P 5650 2600
F 0 "P3" V 5600 2600 60  0000 C CNN
F 1 "PORT_A" V 5700 2600 60  0000 C CNN
	1    5650 2600
	1    0    0    -1  
$EndComp
$Comp
L CONN_8 P4
U 1 1 4C53D19A
P 5650 3500
F 0 "P4" V 5600 3500 60  0000 C CNN
F 1 "PORT_B" V 5700 3500 60  0000 C CNN
	1    5650 3500
	1    0    0    -1  
$EndComp
$Comp
L CONN_8 P5
U 1 1 4C53D199
P 5650 4400
F 0 "P5" V 5600 4400 60  0000 C CNN
F 1 "PORT_C" V 5700 4400 60  0000 C CNN
	1    5650 4400
	1    0    0    -1  
$EndComp
$Comp
L CONN_8 P6
U 1 1 4C53D198
P 5650 5300
F 0 "P6" V 5600 5300 60  0000 C CNN
F 1 "PORT_D" V 5700 5300 60  0000 C CNN
	1    5650 5300
	1    0    0    -1  
$EndComp
Entry Wire Line
	5000 5550 5100 5650
Entry Wire Line
	5000 5450 5100 5550
Entry Wire Line
	5000 5350 5100 5450
Entry Wire Line
	5000 5250 5100 5350
Entry Wire Line
	5000 5150 5100 5250
Entry Wire Line
	5000 5050 5100 5150
Entry Wire Line
	5000 4950 5100 5050
Entry Wire Line
	5000 4850 5100 4950
Entry Wire Line
	5000 2150 5100 2250
Entry Wire Line
	5000 2250 5100 2350
Entry Wire Line
	5000 2350 5100 2450
Entry Wire Line
	5000 2450 5100 2550
Entry Wire Line
	5000 2550 5100 2650
Entry Wire Line
	5000 2650 5100 2750
Entry Wire Line
	5000 2750 5100 2850
Entry Wire Line
	5000 2850 5100 2950
Entry Wire Line
	5000 3050 5100 3150
Entry Wire Line
	5000 3150 5100 3250
Entry Wire Line
	5000 3250 5100 3350
Entry Wire Line
	5000 3350 5100 3450
Entry Wire Line
	5000 3450 5100 3550
Entry Wire Line
	5000 3550 5100 3650
Entry Wire Line
	5000 3650 5100 3750
Entry Wire Line
	5000 3750 5100 3850
Entry Wire Line
	5000 3950 5100 4050
Entry Wire Line
	5000 4050 5100 4150
Entry Wire Line
	5000 4150 5100 4250
Entry Wire Line
	5000 4250 5100 4350
Entry Wire Line
	5000 4350 5100 4450
Entry Wire Line
	5000 4450 5100 4550
Entry Wire Line
	5000 4550 5100 4650
Entry Wire Line
	5000 4650 5100 4750
Text Label 5100 2250 0    60   ~ 0
PA7
Text Label 5100 2350 0    60   ~ 0
PA6
Text Label 5100 2450 0    60   ~ 0
PA5
Text Label 5100 2550 0    60   ~ 0
PA4
Text Label 5100 2650 0    60   ~ 0
PA3
Text Label 5100 2750 0    60   ~ 0
PA2
Text Label 5100 2850 0    60   ~ 0
PA1
Text Label 5100 2950 0    60   ~ 0
PA0
Text Label 5100 3150 0    60   ~ 0
PB7
Text Label 5100 3250 0    60   ~ 0
PB6
Text Label 5100 3350 0    60   ~ 0
PB5
Text Label 5100 3450 0    60   ~ 0
PB4
Text Label 5100 3550 0    60   ~ 0
PB3
Text Label 5100 3650 0    60   ~ 0
PB2
Text Label 5100 3750 0    60   ~ 0
PB1
Text Label 5100 3850 0    60   ~ 0
PB0
Text Label 5100 4050 0    60   ~ 0
PC7
Text Label 5100 4150 0    60   ~ 0
PC6
Text Label 5100 4250 0    60   ~ 0
PC5
Text Label 5100 4350 0    60   ~ 0
PC4
Text Label 5100 4450 0    60   ~ 0
PC3
Text Label 5100 4550 0    60   ~ 0
PC2
Text Label 5100 4650 0    60   ~ 0
PC1
Text Label 5100 4750 0    60   ~ 0
PC0
Text Label 5100 4950 0    60   ~ 0
PD7
Text Label 5100 5050 0    60   ~ 0
PD6
Text Label 5100 5150 0    60   ~ 0
PD5
Text Label 5100 5250 0    60   ~ 0
PD4
Text Label 5100 5350 0    60   ~ 0
PD3
Text Label 5100 5450 0    60   ~ 0
PD2
Text Label 5100 5550 0    60   ~ 0
PD1
Text Label 5100 5650 0    60   ~ 0
PD0
$Comp
L GND #PWR16
U 1 1 4C53D027
P 6800 5750
F 0 "#PWR16" H 6800 5750 30  0001 C CNN
F 1 "GND" H 6800 5680 30  0001 C CNN
	1    6800 5750
	1    0    0    -1  
$EndComp
$Comp
L GND #PWR3
U 1 1 4C2FE738
P 2600 1600
F 0 "#PWR3" H 2600 1600 30  0001 C CNN
F 1 "GND" H 2600 1530 30  0001 C CNN
	1    2600 1600
	1    0    0    -1  
$EndComp
$Comp
L C C3
U 1 1 4C2FE713
P 2600 1300
F 0 "C3" H 2650 1400 50  0000 L CNN
F 1 "100n" H 2650 1200 50  0000 L CNN
	1    2600 1300
	1    0    0    -1  
$EndComp
$Comp
L ZENER D2
U 1 1 4C2F4795
P 2850 7000
F 0 "D2" H 2850 7100 50  0000 C CNN
F 1 "ZENER" H 2850 6900 40  0000 C CNN
	1    2850 7000
	0    -1   -1   0   
$EndComp
$Comp
L ZENER D1
U 1 1 4C2F478E
P 2550 7000
F 0 "D1" H 2550 7100 50  0000 C CNN
F 1 "ZENER" H 2550 6900 40  0000 C CNN
	1    2550 7000
	0    -1   -1   0   
$EndComp
$Comp
L GND #PWR6
U 1 1 4C2F1390
P 2950 1600
F 0 "#PWR6" H 2950 1600 30  0001 C CNN
F 1 "GND" H 2950 1530 30  0001 C CNN
	1    2950 1600
	1    0    0    -1  
$EndComp
$Comp
L C C5
U 1 1 4C2F131E
P 2950 1300
F 0 "C5" H 3000 1400 50  0000 L CNN
F 1 "100n" H 3000 1200 50  0000 L CNN
	1    2950 1300
	1    0    0    -1  
$EndComp
$Comp
L GND #PWR7
U 1 1 4C2EB86C
P 3350 1600
F 0 "#PWR7" H 3350 1600 30  0001 C CNN
F 1 "GND" H 3350 1530 30  0001 C CNN
	1    3350 1600
	1    0    0    -1  
$EndComp
$Comp
L C C6
U 1 1 4C2EB83E
P 3350 1300
F 0 "C6" H 3400 1400 50  0000 L CNN
F 1 "10uF" H 3400 1200 50  0000 L CNN
	1    3350 1300
	1    0    0    -1  
$EndComp
Text Label 3850 6500 0    60   ~ 0
PD4
Text Label 3850 6700 0    60   ~ 0
PD2
Entry Wire Line
	4050 6700 4150 6600
Entry Wire Line
	4050 6500 4150 6400
$Comp
L R R1
U 1 1 4C2EAFD4
P 2700 6300
F 0 "R1" V 2780 6300 50  0000 C CNN
F 1 "1.5K" V 2700 6300 50  0000 C CNN
	1    2700 6300
	0    -1   -1   0   
$EndComp
$Comp
L R R4
U 1 1 4C2EAFD2
P 3550 6700
F 0 "R4" V 3630 6700 50  0000 C CNN
F 1 "68R" V 3550 6700 50  0000 C CNN
	1    3550 6700
	0    -1   -1   0   
$EndComp
$Comp
L R R3
U 1 1 4C2EAFCE
P 3550 6500
F 0 "R3" V 3630 6500 50  0000 C CNN
F 1 "68R" V 3550 6500 50  0000 C CNN
	1    3550 6500
	0    -1   -1   0   
$EndComp
$Comp
L VCC #PWR2
U 1 1 4C2EAF79
P 2350 6200
F 0 "#PWR2" H 2350 6300 30  0001 C CNN
F 1 "VCC" H 2350 6300 30  0000 C CNN
	1    2350 6200
	1    0    0    -1  
$EndComp
$Comp
L GND #PWR5
U 1 1 4C2EAE5B
P 2850 7400
F 0 "#PWR5" H 2850 7400 30  0001 C CNN
F 1 "GND" H 2850 7330 30  0001 C CNN
	1    2850 7400
	1    0    0    -1  
$EndComp
$Comp
L MINIUSB J1
U 1 1 4C2EAE3A
P 2050 6700
F 0 "J1" H 2050 7300 60  0000 C CNN
F 1 "MINIUSB" H 2050 6100 60  0000 C CNN
	1    2050 6700
	1    0    0    -1  
$EndComp
Text Label 4700 5650 0    60   ~ 0
PD0
Text Label 4700 5550 0    60   ~ 0
PD1
Text Label 4700 5450 0    60   ~ 0
PD2
Text Label 4700 5350 0    60   ~ 0
PD3
Text Label 4700 5250 0    60   ~ 0
PD4
Text Label 4700 5150 0    60   ~ 0
PD5
Text Label 4700 5050 0    60   ~ 0
PD6
Text Label 4700 4950 0    60   ~ 0
PD7
Text Label 4700 4750 0    60   ~ 0
PC0
Text Label 4700 4650 0    60   ~ 0
PC1
Text Label 4700 4550 0    60   ~ 0
PC2
Text Label 4700 4450 0    60   ~ 0
PC3
Text Label 4700 4350 0    60   ~ 0
PC4
Text Label 4700 4250 0    60   ~ 0
PC5
Text Label 4700 4150 0    60   ~ 0
PC6
Text Label 4700 4050 0    60   ~ 0
PC7
Text Label 4700 3850 0    60   ~ 0
PB0
Text Label 4700 3750 0    60   ~ 0
PB1
Text Label 4700 3650 0    60   ~ 0
PB2
Text Label 4700 3550 0    60   ~ 0
PB3
Text Label 4700 3450 0    60   ~ 0
PB4
Text Label 4700 3350 0    60   ~ 0
PB5
Text Label 4700 3250 0    60   ~ 0
PB6
Text Label 4700 3150 0    60   ~ 0
PB7
Entry Wire Line
	4900 5650 5000 5550
Entry Wire Line
	4900 5550 5000 5450
Entry Wire Line
	4900 5450 5000 5350
Entry Wire Line
	4900 5350 5000 5250
Entry Wire Line
	4900 5250 5000 5150
Entry Wire Line
	4900 5150 5000 5050
Entry Wire Line
	4900 5050 5000 4950
Entry Wire Line
	4900 4950 5000 4850
Entry Wire Line
	4900 4750 5000 4650
Entry Wire Line
	4900 4650 5000 4550
Entry Wire Line
	4900 4550 5000 4450
Entry Wire Line
	4900 4450 5000 4350
Entry Wire Line
	4900 4350 5000 4250
Entry Wire Line
	4900 4250 5000 4150
Entry Wire Line
	4900 4150 5000 4050
Entry Wire Line
	4900 4050 5000 3950
Entry Wire Line
	4900 3850 5000 3750
Entry Wire Line
	4900 3750 5000 3650
Entry Wire Line
	4900 3650 5000 3550
Entry Wire Line
	4900 3550 5000 3450
Entry Wire Line
	4900 3450 5000 3350
Entry Wire Line
	4900 3350 5000 3250
Entry Wire Line
	4900 3150 5000 3050
Entry Wire Line
	4900 3250 5000 3150
Entry Bus Bus
	6300 2000 6400 2100
Text Label 5100 1550 0    60   ~ 0
PB5
Text Label 5100 1250 0    60   ~ 0
PB7
Text Label 5100 1150 0    60   ~ 0
PB6
Entry Wire Line
	5000 1650 5100 1550
Entry Wire Line
	5000 1250 5100 1150
Entry Wire Line
	5000 1350 5100 1250
Entry Bus Bus
	5000 1900 5100 2000
Entry Bus Bus
	5000 2100 5100 2000
Text Label 4700 2350 0    60   ~ 0
PA6
Text Label 4700 2450 0    60   ~ 0
PA5
Text Label 4700 2550 0    60   ~ 0
PA4
Text Label 4700 2650 0    60   ~ 0
PA3
Text Label 4700 2750 0    60   ~ 0
PA2
Text Label 4700 2850 0    60   ~ 0
PA1
Text Label 4700 2950 0    60   ~ 0
PA0
Text Label 4700 2250 0    60   ~ 0
PA7
Entry Wire Line
	4900 2950 5000 2850
Entry Wire Line
	4900 2850 5000 2750
Entry Wire Line
	4900 2750 5000 2650
Entry Wire Line
	4900 2650 5000 2550
Entry Wire Line
	4900 2550 5000 2450
Entry Wire Line
	4900 2450 5000 2350
Entry Wire Line
	4900 2350 5000 2250
Entry Wire Line
	4900 2250 5000 2150
$Comp
L VCC #PWR13
U 1 1 4C28A4A2
P 6150 1050
F 0 "#PWR13" H 6150 1150 30  0001 C CNN
F 1 "VCC" H 6150 1150 30  0000 C CNN
	1    6150 1050
	1    0    0    -1  
$EndComp
$Comp
L GND #PWR14
U 1 1 4C28A492
P 6150 1850
F 0 "#PWR14" H 6150 1850 30  0001 C CNN
F 1 "GND" H 6150 1780 30  0001 C CNN
	1    6150 1850
	1    0    0    -1  
$EndComp
$Comp
L AVR-ISP-6 J2
U 1 1 4C28A3C6
P 5750 1250
F 0 "J2" H 5600 1500 50  0000 C CNN
F 1 "AVR-ISP-6" H 5500 975 50  0000 L BNN
F 2 "AVR-ISP-6" V 5250 1250 50  0001 C CNN
	1    5750 1250
	1    0    0    -1  
$EndComp
$Comp
L GND #PWR4
U 1 1 4C2785F2
P 2600 4050
F 0 "#PWR4" H 2600 4050 30  0001 C CNN
F 1 "GND" H 2600 3980 30  0001 C CNN
	1    2600 4050
	1    0    0    -1  
$EndComp
$Comp
L C C4
U 1 1 4C2785E7
P 2600 3750
F 0 "C4" H 2650 3850 50  0000 L CNN
F 1 "100n" H 2650 3650 50  0000 L CNN
	1    2600 3750
	1    0    0    -1  
$EndComp
$Comp
L GND #PWR9
U 1 1 4C2785C7
P 3700 6150
F 0 "#PWR9" H 3700 6150 30  0001 C CNN
F 1 "GND" H 3700 6080 30  0001 C CNN
	1    3700 6150
	1    0    0    -1  
$EndComp
$Comp
L GND #PWR10
U 1 1 4C27857D
P 4550 1600
F 0 "#PWR10" H 4550 1600 30  0001 C CNN
F 1 "GND" H 4550 1530 30  0001 C CNN
	1    4550 1600
	1    0    0    -1  
$EndComp
$Comp
L C C7
U 1 1 4C27856F
P 4550 1300
F 0 "C7" H 4600 1400 50  0000 L CNN
F 1 "100n" H 4600 1200 50  0000 L CNN
	1    4550 1300
	1    0    0    -1  
$EndComp
$Comp
L GND #PWR1
U 1 1 4C2784F3
P 1600 3350
F 0 "#PWR1" H 1600 3350 30  0001 C CNN
F 1 "GND" H 1600 3280 30  0001 C CNN
	1    1600 3350
	1    0    0    -1  
$EndComp
$Comp
L VCC #PWR8
U 1 1 4C27846C
P 3650 900
F 0 "#PWR8" H 3650 1000 30  0001 C CNN
F 1 "VCC" H 3650 1000 30  0000 C CNN
	1    3650 900 
	1    0    0    -1  
$EndComp
$Comp
L INDUCTOR L1
U 1 1 4C278438
P 4050 1000
F 0 "L1" V 4000 1000 40  0000 C CNN
F 1 "120uH" V 4150 1000 40  0000 C CNN
	1    4050 1000
	0    -1   -1   0   
$EndComp
$Comp
L C C1
U 1 1 4C278234
P 1900 2450
F 0 "C1" V 1950 2550 50  0000 L CNN
F 1 "22p" V 1950 2300 50  0000 L CNN
	1    1900 2450
	0    -1   -1   0   
$EndComp
$Comp
L C C2
U 1 1 4C2781F9
P 1900 3250
F 0 "C2" V 1950 3350 50  0000 L CNN
F 1 "22p" V 1950 3100 50  0000 L CNN
	1    1900 3250
	0    -1   -1   0   
$EndComp
$Comp
L CRYSTAL X1
U 1 1 4C2781C0
P 2200 2850
F 0 "X1" V 2200 3000 60  0000 C CNN
F 1 "quartz" H 2200 2700 60  0000 C CNN
	1    2200 2850
	0    -1   -1   0   
$EndComp
$Comp
L ATMEGA32-A IC1
U 1 1 4C25C21E
P 3700 3950
F 0 "IC1" H 2900 5780 50  0000 L BNN
F 1 "ATMEGA32-A" H 3950 2050 50  0000 L BNN
F 2 "TQFP44" H 4200 1975 50  0001 C CNN
	1    3700 3950
	1    0    0    -1  
$EndComp
$EndSCHEMATC
