PCBNEW-LibModule-V1  Сбт 04 Сен 2010 01:05:03
$INDEX
r_pack4_smd
$EndINDEX
$MODULE r_pack4_smd
Po 0 0 0 15 4C8145F7 00000000 ~~
Li r_pack4_smd
Sc 00000000
AR 
Op 0 0 0
T0 0 650 197 197 0 39 N I 21 N"r_pack4_smd"
T1 -25 25 197 197 0 39 N V 21 N"VAL**"
DA 350 300 275 300 900 39 21
DA 350 300 350 225 900 39 21
DA 0 300 -75 300 900 39 21
DA 0 300 0 225 900 39 21
DA -350 300 -425 300 900 39 21
DA -350 300 -350 225 900 39 21
DA 350 -300 425 -300 900 39 21
DA 350 -300 350 -225 900 39 21
DA 0 -300 75 -300 900 39 21
DA 0 -300 0 -225 900 39 21
DA -350 -300 -275 -300 900 39 21
DA -350 -300 -350 -225 900 39 21
DS 425 -300 625 -300 39 21
DS 625 -300 625 300 39 21
DS 625 300 425 300 39 21
DS 75 300 275 300 39 21
DS 75 -300 275 -300 39 21
DS -275 300 -75 300 39 21
DS -275 -300 -75 -300 39 21
DS -600 300 -425 300 39 21
DS -625 -300 -425 -300 39 21
DS -625 -300 -625 300 39 21
$PAD
Sh "2" R 197 315 0 0 0
Dr 0 0 0
At SMD N 00888000
Ne 0 ""
Po -175 -300
$EndPAD
$PAD
Sh "3" R 197 315 0 0 0
Dr 0 0 0
At SMD N 00888000
Ne 0 ""
Po 175 -300
$EndPAD
$PAD
Sh "4" R 197 315 0 0 0
Dr 0 0 0
At SMD N 00888000
Ne 0 ""
Po 525 -300
$EndPAD
$PAD
Sh "1" R 197 315 0 0 0
Dr 0 0 0
At SMD N 00888000
Ne 0 ""
Po -525 -300
$EndPAD
$PAD
Sh "8" R 197 315 0 0 0
Dr 0 0 0
At SMD N 00888000
Ne 0 ""
Po -525 300
$EndPAD
$PAD
Sh "7" R 197 315 0 0 0
Dr 0 0 0
At SMD N 00888000
Ne 0 ""
Po -175 300
$EndPAD
$PAD
Sh "6" R 197 315 0 0 0
Dr 0 0 0
At SMD N 00888000
Ne 0 ""
Po 175 300
$EndPAD
$PAD
Sh "5" R 197 315 0 0 0
Dr 0 0 0
At SMD N 00888000
Ne 0 ""
Po 525 300
$EndPAD
$EndMODULE  r_pack4_smd
$EndLIBRARY
