PCBNEW-LibModule-V1  Пт. 02 сент. 2011 22:14:41
$INDEX
SW_PUSH_SIDE
$EndINDEX
$MODULE SW_PUSH_SIDE
Po 0 0 0 15 4E6100EA 00000000 ~~
Li SW_PUSH_SIDE
Sc 00000000
AR 
Op 0 0 0
T0 0 2756 600 600 0 120 N V 21 N"SW_PUSH_SIDE"
T1 0 -2953 600 600 0 120 N V 21 N"VAL**"
DS 591 -787 591 -1575 150 21
DS 591 -1575 -591 -1575 150 21
DS -591 -1575 -591 -787 150 21
DS -1575 -787 1575 -787 150 21
DS 1575 -787 1575 1772 150 21
DS 1575 1772 -1575 1772 150 21
DS -1575 1772 -1575 -787 150 21
$PAD
Sh "1" C 787 787 0 0 0
Dr 320 0 0
At STD N 00E0FFFF
Ne 0 ""
Po 1378 1575
$EndPAD
$PAD
Sh "1" C 787 787 0 0 0
Dr 320 0 0
At STD N 00E0FFFF
Ne 0 ""
Po -1378 1575
$EndPAD
$PAD
Sh "2" C 787 787 0 0 0
Dr 320 0 0
At STD N 00E0FFFF
Ne 0 ""
Po 984 0
$EndPAD
$PAD
Sh "1" C 787 787 0 0 0
Dr 320 0 0
At STD N 00E0FFFF
Ne 0 ""
Po -984 0
$EndPAD
$EndMODULE  SW_PUSH_SIDE
$EndLIBRARY
